<svg width="435" height="435" viewBox="0 0 435 435" fill="none" xmlns="http://www.w3.org/2000/svg">
<circle cx="217.5" cy="217.5" r="217.5" fill="#3DDC85"/>
<path d="M95.08 160.808C88.936 160.808 84.472 161.624 81.688 163.256C79 164.792 77.656 167.384 77.656 171.032C77.656 172.76 78.136 174.584 79.096 176.504C80.056 178.328 81.64 180.92 83.848 184.28C86.536 188.312 88.552 191.768 89.896 194.648C91.24 197.432 91.912 200.312 91.912 203.288C91.912 207.416 90.76 210.968 88.456 213.944C86.152 216.824 82.888 218.936 78.664 220.28C82.888 221.624 86.152 223.784 88.456 226.76C90.76 229.64 91.912 233.144 91.912 237.272C91.912 240.248 91.24 243.176 89.896 246.056C88.552 248.84 86.536 252.248 83.848 256.28C81.64 259.64 80.056 262.232 79.096 264.056C78.136 265.976 77.656 267.8 77.656 269.528C77.656 273.176 79 275.768 81.688 277.304C84.472 278.936 88.936 279.752 95.08 279.752C96.616 279.752 97.912 280.28 98.968 281.336C100.024 282.392 100.552 283.688 100.552 285.224V288.968C100.552 290.504 100.024 291.8 98.968 292.856C97.912 293.912 96.616 294.44 95.08 294.44C83.656 294.44 75.016 292.52 69.16 288.68C63.304 284.936 60.376 279.416 60.376 272.12C60.376 268.088 61.096 264.344 62.536 260.888C64.072 257.528 66.184 253.736 68.872 249.512C70.888 246.248 72.328 243.656 73.192 241.736C74.152 239.816 74.632 237.896 74.632 235.976C74.632 233.288 73.624 231.224 71.608 229.784C69.592 228.344 66.712 227.624 62.968 227.624H60.088C58.552 227.624 57.256 227.096 56.2 226.04C55.144 224.984 54.616 223.688 54.616 222.152V218.264C54.616 216.728 55.144 215.48 56.2 214.52C57.256 213.464 58.552 212.936 60.088 212.936H62.968C66.712 212.936 69.592 212.216 71.608 210.776C73.624 209.24 74.632 207.128 74.632 204.44C74.632 202.616 74.152 200.744 73.192 198.824C72.328 196.904 70.888 194.312 68.872 191.048C66.184 186.824 64.072 183.032 62.536 179.672C61.096 176.216 60.376 172.472 60.376 168.44C60.376 161.144 63.304 155.624 69.16 151.88C75.016 148.04 83.656 146.12 95.08 146.12C96.616 146.12 97.912 146.648 98.968 147.704C100.024 148.76 100.552 150.056 100.552 151.592V155.336C100.552 156.872 100.024 158.168 98.968 159.224C97.912 160.28 96.616 160.808 95.08 160.808ZM203.86 242.312C207.604 242.312 209.476 243.944 209.476 247.208V252.104C209.476 255.368 207.604 257 203.86 257H179.812C176.068 257 174.196 255.368 174.196 252.104V247.208C174.196 243.944 176.068 242.312 179.812 242.312H182.98L176.644 225.176H142.372L136.18 242.312H139.204C142.948 242.312 144.82 243.944 144.82 247.208V252.104C144.82 255.368 142.948 257 139.204 257H117.604C113.86 257 111.988 255.368 111.988 252.104V247.208C111.988 243.944 113.86 242.312 117.604 242.312H120.628L151.012 160.232C151.492 158.984 152.26 158.024 153.316 157.352C154.372 156.584 155.572 156.2 156.916 156.2H164.116C165.46 156.2 166.612 156.584 167.572 157.352C168.628 158.024 169.396 158.984 169.876 160.232L200.836 242.312H203.86ZM171.172 210.488L159.364 178.232L147.7 210.488H171.172ZM312.282 242.312C316.026 242.312 317.898 243.944 317.898 247.208V252.104C317.898 255.368 316.026 257 312.282 257H288.234C284.49 257 282.618 255.368 282.618 252.104V247.208C282.618 243.944 284.49 242.312 288.234 242.312H291.402L285.066 225.176H250.794L244.602 242.312H247.626C251.37 242.312 253.242 243.944 253.242 247.208V252.104C253.242 255.368 251.37 257 247.626 257H226.026C222.282 257 220.41 255.368 220.41 252.104V247.208C220.41 243.944 222.282 242.312 226.026 242.312H229.05L259.434 160.232C259.914 158.984 260.682 158.024 261.738 157.352C262.794 156.584 263.994 156.2 265.338 156.2H272.538C273.882 156.2 275.034 156.584 275.994 157.352C277.05 158.024 277.818 158.984 278.298 160.232L309.258 242.312H312.282ZM279.594 210.488L267.786 178.232L256.122 210.488H279.594ZM369.727 212.936C371.263 212.936 372.559 213.464 373.615 214.52C374.671 215.48 375.199 216.728 375.199 218.264V222.152C375.199 223.688 374.671 224.984 373.615 226.04C372.559 227.096 371.263 227.624 369.727 227.624H366.847C363.103 227.624 360.223 228.344 358.207 229.784C356.191 231.224 355.183 233.288 355.183 235.976C355.183 237.896 355.615 239.816 356.479 241.736C357.439 243.656 358.927 246.248 360.943 249.512C363.631 253.928 365.695 257.768 367.135 261.032C368.575 264.392 369.295 268.088 369.295 272.12C369.295 279.512 366.367 285.08 360.511 288.824C354.655 292.568 346.063 294.44 334.735 294.44C333.199 294.44 331.903 293.912 330.847 292.856C329.791 291.896 329.263 290.6 329.263 288.968V285.224C329.263 283.688 329.791 282.392 330.847 281.336C331.903 280.28 333.199 279.752 334.735 279.752C340.879 279.752 345.295 278.936 347.983 277.304C350.671 275.768 352.015 273.176 352.015 269.528C352.015 267.8 351.487 265.928 350.431 263.912C349.471 261.992 347.983 259.448 345.967 256.28C343.279 252.248 341.263 248.84 339.919 246.056C338.575 243.176 337.903 240.248 337.903 237.272C337.903 233.144 339.007 229.64 341.215 226.76C343.519 223.784 346.783 221.624 351.007 220.28C346.783 218.936 343.519 216.824 341.215 213.944C339.007 210.968 337.903 207.416 337.903 203.288C337.903 200.312 338.575 197.432 339.919 194.648C341.263 191.768 343.279 188.312 345.967 184.28C347.983 181.112 349.471 178.568 350.431 176.648C351.487 174.632 352.015 172.76 352.015 171.032C352.015 167.384 350.671 164.792 347.983 163.256C345.295 161.624 340.879 160.808 334.735 160.808C333.199 160.808 331.903 160.28 330.847 159.224C329.791 158.168 329.263 156.872 329.263 155.336V151.592C329.263 149.96 329.791 148.664 330.847 147.704C331.903 146.648 333.199 146.12 334.735 146.12C346.063 146.12 354.655 147.992 360.511 151.736C366.367 155.48 369.295 161.048 369.295 168.44C369.295 172.472 368.575 176.168 367.135 179.528C365.695 182.792 363.631 186.632 360.943 191.048C358.927 194.312 357.439 196.904 356.479 198.824C355.615 200.744 355.183 202.616 355.183 204.44C355.183 207.128 356.191 209.24 358.207 210.776C360.223 212.216 363.103 212.936 366.847 212.936H369.727Z" fill="black"/>
</svg>
